G04 #@! TF.FileFunction,Copper,L2,Bot,Signal*
%FSLAX46Y46*%
G04 Gerber Fmt 4.6, Leading zero omitted, Abs format (unit mm)*
G04 Created by KiCad (PCBNEW 4.0.1-stable) date Пн 15 фев 2016 02:29:38*
%MOMM*%
G01*
G04 APERTURE LIST*
%ADD10C,0.100000*%
%ADD11R,1.727200X2.032000*%
%ADD12O,1.727200X2.032000*%
%ADD13R,2.032000X1.727200*%
%ADD14O,2.032000X1.727200*%
%ADD15R,2.032000X2.032000*%
%ADD16O,2.032000X2.032000*%
%ADD17O,2.540000X2.032000*%
G04 APERTURE END LIST*
D10*
D11*
X26670000Y-22860000D03*
D12*
X29210000Y-22860000D03*
X31750000Y-22860000D03*
X34290000Y-22860000D03*
D13*
X33020000Y-27940000D03*
D14*
X33020000Y-30480000D03*
X33020000Y-33020000D03*
X33020000Y-35560000D03*
D15*
X43180000Y-22860000D03*
D16*
X45720000Y-22860000D03*
D17*
X45720000Y-31750000D03*
X45720000Y-29210000D03*
X45720000Y-34290000D03*
X39370000Y-31750000D03*
X39370000Y-29210000D03*
X39370000Y-34290000D03*
X27940000Y-31750000D03*
X27940000Y-29210000D03*
X27940000Y-34290000D03*
M02*
