(kicad_pcb (version 4) (host pcbnew 4.0.1-stable)

  (general
    (links 11)
    (no_connects 0)
    (area 22.809999 18.999999 49.580001 39.420001)
    (thickness 1.6)
    (drawings 8)
    (tracks 53)
    (zones 0)
    (modules 6)
    (nets 9)
  )

  (page A4)
  (layers
    (0 F.Cu signal)
    (31 B.Cu signal)
    (32 B.Adhes user)
    (33 F.Adhes user)
    (34 B.Paste user)
    (35 F.Paste user)
    (36 B.SilkS user)
    (37 F.SilkS user)
    (38 B.Mask user)
    (39 F.Mask user)
    (40 Dwgs.User user)
    (41 Cmts.User user)
    (42 Eco1.User user)
    (43 Eco2.User user)
    (44 Edge.Cuts user)
    (45 Margin user)
    (46 B.CrtYd user)
    (47 F.CrtYd user)
    (48 B.Fab user)
    (49 F.Fab user)
  )

  (setup
    (last_trace_width 0.35)
    (trace_clearance 0.2)
    (zone_clearance 0.508)
    (zone_45_only no)
    (trace_min 0.2)
    (segment_width 0.2)
    (edge_width 0.1)
    (via_size 0.6)
    (via_drill 0.4)
    (via_min_size 0.4)
    (via_min_drill 0.3)
    (uvia_size 0.3)
    (uvia_drill 0.1)
    (uvias_allowed no)
    (uvia_min_size 0.2)
    (uvia_min_drill 0.1)
    (pcb_text_width 0.3)
    (pcb_text_size 1.5 1.5)
    (mod_edge_width 0.15)
    (mod_text_size 1 1)
    (mod_text_width 0.15)
    (pad_size 1.5 1.5)
    (pad_drill 0.6)
    (pad_to_mask_clearance 0)
    (aux_axis_origin 163.83 73.66)
    (visible_elements FFFFFF7F)
    (pcbplotparams
      (layerselection 0x010f0_80000001)
      (usegerberextensions false)
      (excludeedgelayer true)
      (linewidth 0.100000)
      (plotframeref false)
      (viasonmask false)
      (mode 1)
      (useauxorigin false)
      (hpglpennumber 1)
      (hpglpenspeed 20)
      (hpglpendiameter 15)
      (hpglpenoverlay 2)
      (psnegative false)
      (psa4output false)
      (plotreference true)
      (plotvalue true)
      (plotinvisibletext false)
      (padsonsilk false)
      (subtractmaskfromsilk true)
      (outputformat 1)
      (mirror false)
      (drillshape 0)
      (scaleselection 1)
      (outputdirectory ""))
  )

  (net 0 "")
  (net 1 +12V)
  (net 2 "Net-(P1-Pad2)")
  (net 3 "Net-(P1-Pad3)")
  (net 4 "Net-(P1-Pad4)")
  (net 5 "Net-(P2-Pad2)")
  (net 6 "Net-(P2-Pad3)")
  (net 7 "Net-(P2-Pad4)")
  (net 8 GND)

  (net_class Default "Это класс цепей по умолчанию."
    (clearance 0.2)
    (trace_width 0.35)
    (via_dia 0.6)
    (via_drill 0.4)
    (uvia_dia 0.3)
    (uvia_drill 0.1)
    (add_net +12V)
    (add_net GND)
    (add_net "Net-(P1-Pad2)")
    (add_net "Net-(P1-Pad3)")
    (add_net "Net-(P1-Pad4)")
    (add_net "Net-(P2-Pad2)")
    (add_net "Net-(P2-Pad3)")
    (add_net "Net-(P2-Pad4)")
  )

  (module Pin_Headers:Pin_Header_Straight_1x04 (layer B.Cu) (tedit 0) (tstamp 56C093C7)
    (at 26.67 22.86 270)
    (descr "Through hole pin header")
    (tags "pin header")
    (path /56C0A748)
    (fp_text reference P1 (at 0 2.54 270) (layer B.SilkS)
      (effects (font (size 1 1) (thickness 0.15)) (justify mirror))
    )
    (fp_text value CONN_01X04 (at 0 3.1 270) (layer B.Fab)
      (effects (font (size 1 1) (thickness 0.15)) (justify mirror))
    )
    (fp_line (start -1.75 1.75) (end -1.75 -9.4) (layer B.CrtYd) (width 0.05))
    (fp_line (start 1.75 1.75) (end 1.75 -9.4) (layer B.CrtYd) (width 0.05))
    (fp_line (start -1.75 1.75) (end 1.75 1.75) (layer B.CrtYd) (width 0.05))
    (fp_line (start -1.75 -9.4) (end 1.75 -9.4) (layer B.CrtYd) (width 0.05))
    (fp_line (start -1.27 -1.27) (end -1.27 -8.89) (layer B.SilkS) (width 0.15))
    (fp_line (start 1.27 -1.27) (end 1.27 -8.89) (layer B.SilkS) (width 0.15))
    (fp_line (start 1.55 1.55) (end 1.55 0) (layer B.SilkS) (width 0.15))
    (fp_line (start -1.27 -8.89) (end 1.27 -8.89) (layer B.SilkS) (width 0.15))
    (fp_line (start 1.27 -1.27) (end -1.27 -1.27) (layer B.SilkS) (width 0.15))
    (fp_line (start -1.55 0) (end -1.55 1.55) (layer B.SilkS) (width 0.15))
    (fp_line (start -1.55 1.55) (end 1.55 1.55) (layer B.SilkS) (width 0.15))
    (pad 1 thru_hole rect (at 0 0 270) (size 2.032 1.7272) (drill 1.016) (layers *.Cu *.Mask B.SilkS)
      (net 1 +12V))
    (pad 2 thru_hole oval (at 0 -2.54 270) (size 2.032 1.7272) (drill 1.016) (layers *.Cu *.Mask B.SilkS)
      (net 2 "Net-(P1-Pad2)"))
    (pad 3 thru_hole oval (at 0 -5.08 270) (size 2.032 1.7272) (drill 1.016) (layers *.Cu *.Mask B.SilkS)
      (net 3 "Net-(P1-Pad3)"))
    (pad 4 thru_hole oval (at 0 -7.62 270) (size 2.032 1.7272) (drill 1.016) (layers *.Cu *.Mask B.SilkS)
      (net 4 "Net-(P1-Pad4)"))
    (model Pin_Headers.3dshapes/Pin_Header_Straight_1x04.wrl
      (at (xyz 0 -0.15 0))
      (scale (xyz 1 1 1))
      (rotate (xyz 0 0 90))
    )
  )

  (module Pin_Headers:Pin_Header_Straight_1x04 (layer B.Cu) (tedit 0) (tstamp 56C093DA)
    (at 33.02 27.94 180)
    (descr "Through hole pin header")
    (tags "pin header")
    (path /56C09EAF)
    (fp_text reference P2 (at -2.54 0 180) (layer B.SilkS)
      (effects (font (size 1 1) (thickness 0.15)) (justify mirror))
    )
    (fp_text value CONN_01X04 (at 0 3.1 180) (layer B.Fab)
      (effects (font (size 1 1) (thickness 0.15)) (justify mirror))
    )
    (fp_line (start -1.75 1.75) (end -1.75 -9.4) (layer B.CrtYd) (width 0.05))
    (fp_line (start 1.75 1.75) (end 1.75 -9.4) (layer B.CrtYd) (width 0.05))
    (fp_line (start -1.75 1.75) (end 1.75 1.75) (layer B.CrtYd) (width 0.05))
    (fp_line (start -1.75 -9.4) (end 1.75 -9.4) (layer B.CrtYd) (width 0.05))
    (fp_line (start -1.27 -1.27) (end -1.27 -8.89) (layer B.SilkS) (width 0.15))
    (fp_line (start 1.27 -1.27) (end 1.27 -8.89) (layer B.SilkS) (width 0.15))
    (fp_line (start 1.55 1.55) (end 1.55 0) (layer B.SilkS) (width 0.15))
    (fp_line (start -1.27 -8.89) (end 1.27 -8.89) (layer B.SilkS) (width 0.15))
    (fp_line (start 1.27 -1.27) (end -1.27 -1.27) (layer B.SilkS) (width 0.15))
    (fp_line (start -1.55 0) (end -1.55 1.55) (layer B.SilkS) (width 0.15))
    (fp_line (start -1.55 1.55) (end 1.55 1.55) (layer B.SilkS) (width 0.15))
    (pad 1 thru_hole rect (at 0 0 180) (size 2.032 1.7272) (drill 1.016) (layers *.Cu *.Mask B.SilkS)
      (net 8 GND))
    (pad 2 thru_hole oval (at 0 -2.54 180) (size 2.032 1.7272) (drill 1.016) (layers *.Cu *.Mask B.SilkS)
      (net 5 "Net-(P2-Pad2)"))
    (pad 3 thru_hole oval (at 0 -5.08 180) (size 2.032 1.7272) (drill 1.016) (layers *.Cu *.Mask B.SilkS)
      (net 6 "Net-(P2-Pad3)"))
    (pad 4 thru_hole oval (at 0 -7.62 180) (size 2.032 1.7272) (drill 1.016) (layers *.Cu *.Mask B.SilkS)
      (net 7 "Net-(P2-Pad4)"))
    (model Pin_Headers.3dshapes/Pin_Header_Straight_1x04.wrl
      (at (xyz 0 -0.15 0))
      (scale (xyz 1 1 1))
      (rotate (xyz 0 0 90))
    )
  )

  (module Pin_Headers:Pin_Header_Straight_1x02 (layer B.Cu) (tedit 54EA090C) (tstamp 56C093EB)
    (at 43.18 22.86 270)
    (descr "Through hole pin header")
    (tags "pin header")
    (path /56C0AD95)
    (fp_text reference P3 (at 0 2.54 270) (layer B.SilkS)
      (effects (font (size 1 1) (thickness 0.15)) (justify mirror))
    )
    (fp_text value CONN_01X02 (at 0 3.1 270) (layer B.Fab)
      (effects (font (size 1 1) (thickness 0.15)) (justify mirror))
    )
    (fp_line (start 1.27 -1.27) (end 1.27 -3.81) (layer B.SilkS) (width 0.15))
    (fp_line (start 1.55 1.55) (end 1.55 0) (layer B.SilkS) (width 0.15))
    (fp_line (start -1.75 1.75) (end -1.75 -4.3) (layer B.CrtYd) (width 0.05))
    (fp_line (start 1.75 1.75) (end 1.75 -4.3) (layer B.CrtYd) (width 0.05))
    (fp_line (start -1.75 1.75) (end 1.75 1.75) (layer B.CrtYd) (width 0.05))
    (fp_line (start -1.75 -4.3) (end 1.75 -4.3) (layer B.CrtYd) (width 0.05))
    (fp_line (start 1.27 -1.27) (end -1.27 -1.27) (layer B.SilkS) (width 0.15))
    (fp_line (start -1.55 0) (end -1.55 1.55) (layer B.SilkS) (width 0.15))
    (fp_line (start -1.55 1.55) (end 1.55 1.55) (layer B.SilkS) (width 0.15))
    (fp_line (start -1.27 -1.27) (end -1.27 -3.81) (layer B.SilkS) (width 0.15))
    (fp_line (start -1.27 -3.81) (end 1.27 -3.81) (layer B.SilkS) (width 0.15))
    (pad 1 thru_hole rect (at 0 0 270) (size 2.032 2.032) (drill 1.016) (layers *.Cu *.Mask B.SilkS)
      (net 1 +12V))
    (pad 2 thru_hole oval (at 0 -2.54 270) (size 2.032 2.032) (drill 1.016) (layers *.Cu *.Mask B.SilkS)
      (net 8 GND))
    (model Pin_Headers.3dshapes/Pin_Header_Straight_1x02.wrl
      (at (xyz 0 -0.05 0))
      (scale (xyz 1 1 1))
      (rotate (xyz 0 0 90))
    )
  )

  (module Power_Integrations:TO-220 (layer B.Cu) (tedit 0) (tstamp 56C093FC)
    (at 45.72 31.75 90)
    (descr "Non Isolated JEDEC TO-220 Package")
    (tags "Power Integration YN Package")
    (path /56C0D840)
    (fp_text reference Q1 (at -6.35 0 90) (layer B.SilkS)
      (effects (font (size 1 1) (thickness 0.15)) (justify mirror))
    )
    (fp_text value IRLZ34N (at 0 4.318 90) (layer B.Fab)
      (effects (font (size 1 1) (thickness 0.15)) (justify mirror))
    )
    (fp_line (start 4.826 1.651) (end 4.826 -1.778) (layer B.SilkS) (width 0.15))
    (fp_line (start -4.826 1.651) (end -4.826 -1.778) (layer B.SilkS) (width 0.15))
    (fp_line (start 5.334 2.794) (end -5.334 2.794) (layer B.SilkS) (width 0.15))
    (fp_line (start 1.778 1.778) (end 1.778 3.048) (layer B.SilkS) (width 0.15))
    (fp_line (start -1.778 1.778) (end -1.778 3.048) (layer B.SilkS) (width 0.15))
    (fp_line (start -5.334 1.651) (end 5.334 1.651) (layer B.SilkS) (width 0.15))
    (fp_line (start 5.334 -1.778) (end -5.334 -1.778) (layer B.SilkS) (width 0.15))
    (fp_line (start -5.334 3.048) (end -5.334 -1.778) (layer B.SilkS) (width 0.15))
    (fp_line (start 5.334 3.048) (end 5.334 -1.778) (layer B.SilkS) (width 0.15))
    (fp_line (start 5.334 3.048) (end -5.334 3.048) (layer B.SilkS) (width 0.15))
    (pad 2 thru_hole oval (at 0 0 90) (size 2.032 2.54) (drill 1.143) (layers *.Cu *.Mask B.SilkS)
      (net 8 GND))
    (pad 3 thru_hole oval (at 2.54 0 90) (size 2.032 2.54) (drill 1.143) (layers *.Cu *.Mask B.SilkS)
      (net 4 "Net-(P1-Pad4)"))
    (pad 1 thru_hole oval (at -2.54 0 90) (size 2.032 2.54) (drill 1.143) (layers *.Cu *.Mask B.SilkS)
      (net 7 "Net-(P2-Pad4)"))
  )

  (module Power_Integrations:TO-220 (layer B.Cu) (tedit 0) (tstamp 56C0940D)
    (at 39.37 31.75 90)
    (descr "Non Isolated JEDEC TO-220 Package")
    (tags "Power Integration YN Package")
    (path /56C0D899)
    (fp_text reference Q2 (at 1.27 -2.54 90) (layer B.SilkS)
      (effects (font (size 1 1) (thickness 0.15)) (justify mirror))
    )
    (fp_text value IRLZ34N (at 0 4.318 90) (layer B.Fab)
      (effects (font (size 1 1) (thickness 0.15)) (justify mirror))
    )
    (fp_line (start 4.826 1.651) (end 4.826 -1.778) (layer B.SilkS) (width 0.15))
    (fp_line (start -4.826 1.651) (end -4.826 -1.778) (layer B.SilkS) (width 0.15))
    (fp_line (start 5.334 2.794) (end -5.334 2.794) (layer B.SilkS) (width 0.15))
    (fp_line (start 1.778 1.778) (end 1.778 3.048) (layer B.SilkS) (width 0.15))
    (fp_line (start -1.778 1.778) (end -1.778 3.048) (layer B.SilkS) (width 0.15))
    (fp_line (start -5.334 1.651) (end 5.334 1.651) (layer B.SilkS) (width 0.15))
    (fp_line (start 5.334 -1.778) (end -5.334 -1.778) (layer B.SilkS) (width 0.15))
    (fp_line (start -5.334 3.048) (end -5.334 -1.778) (layer B.SilkS) (width 0.15))
    (fp_line (start 5.334 3.048) (end 5.334 -1.778) (layer B.SilkS) (width 0.15))
    (fp_line (start 5.334 3.048) (end -5.334 3.048) (layer B.SilkS) (width 0.15))
    (pad 2 thru_hole oval (at 0 0 90) (size 2.032 2.54) (drill 1.143) (layers *.Cu *.Mask B.SilkS)
      (net 8 GND))
    (pad 3 thru_hole oval (at 2.54 0 90) (size 2.032 2.54) (drill 1.143) (layers *.Cu *.Mask B.SilkS)
      (net 3 "Net-(P1-Pad3)"))
    (pad 1 thru_hole oval (at -2.54 0 90) (size 2.032 2.54) (drill 1.143) (layers *.Cu *.Mask B.SilkS)
      (net 6 "Net-(P2-Pad3)"))
  )

  (module Power_Integrations:TO-220 (layer B.Cu) (tedit 0) (tstamp 56C0941E)
    (at 27.94 31.75 90)
    (descr "Non Isolated JEDEC TO-220 Package")
    (tags "Power Integration YN Package")
    (path /56C0D9F9)
    (fp_text reference Q3 (at 0 -2.54 90) (layer B.SilkS)
      (effects (font (size 1 1) (thickness 0.15)) (justify mirror))
    )
    (fp_text value IRLZ34N (at 0 4.318 90) (layer B.Fab)
      (effects (font (size 1 1) (thickness 0.15)) (justify mirror))
    )
    (fp_line (start 4.826 1.651) (end 4.826 -1.778) (layer B.SilkS) (width 0.15))
    (fp_line (start -4.826 1.651) (end -4.826 -1.778) (layer B.SilkS) (width 0.15))
    (fp_line (start 5.334 2.794) (end -5.334 2.794) (layer B.SilkS) (width 0.15))
    (fp_line (start 1.778 1.778) (end 1.778 3.048) (layer B.SilkS) (width 0.15))
    (fp_line (start -1.778 1.778) (end -1.778 3.048) (layer B.SilkS) (width 0.15))
    (fp_line (start -5.334 1.651) (end 5.334 1.651) (layer B.SilkS) (width 0.15))
    (fp_line (start 5.334 -1.778) (end -5.334 -1.778) (layer B.SilkS) (width 0.15))
    (fp_line (start -5.334 3.048) (end -5.334 -1.778) (layer B.SilkS) (width 0.15))
    (fp_line (start 5.334 3.048) (end 5.334 -1.778) (layer B.SilkS) (width 0.15))
    (fp_line (start 5.334 3.048) (end -5.334 3.048) (layer B.SilkS) (width 0.15))
    (pad 2 thru_hole oval (at 0 0 90) (size 2.032 2.54) (drill 1.143) (layers *.Cu *.Mask B.SilkS)
      (net 8 GND))
    (pad 3 thru_hole oval (at 2.54 0 90) (size 2.032 2.54) (drill 1.143) (layers *.Cu *.Mask B.SilkS)
      (net 2 "Net-(P1-Pad2)"))
    (pad 1 thru_hole oval (at -2.54 0 90) (size 2.032 2.54) (drill 1.143) (layers *.Cu *.Mask B.SilkS)
      (net 5 "Net-(P2-Pad2)"))
  )

  (gr_line (start 46.99 19.05) (end 49.53 21.59) (layer Edge.Cuts) (width 0.1))
  (gr_line (start 25.4 19.05) (end 46.99 19.05) (layer Edge.Cuts) (width 0.1))
  (gr_line (start 22.86 21.59) (end 25.4 19.05) (layer Edge.Cuts) (width 0.1))
  (gr_line (start 22.86 36.83) (end 22.86 21.59) (layer Edge.Cuts) (width 0.1))
  (gr_line (start 25.4 39.37) (end 22.86 36.83) (layer Edge.Cuts) (width 0.1))
  (gr_line (start 46.99 39.37) (end 25.4 39.37) (layer Edge.Cuts) (width 0.1))
  (gr_line (start 49.53 36.83) (end 46.99 39.37) (layer Edge.Cuts) (width 0.1))
  (gr_line (start 49.53 21.59) (end 49.53 36.83) (layer Edge.Cuts) (width 0.1))

  (segment (start 26.67 22.86) (end 26.67 21.59) (width 0.35) (layer F.Cu) (net 1))
  (segment (start 39.37 22.86) (end 43.18 22.86) (width 0.35) (layer F.Cu) (net 1) (tstamp 56C0AADE))
  (segment (start 36.83 20.32) (end 39.37 22.86) (width 0.35) (layer F.Cu) (net 1) (tstamp 56C0AADB))
  (segment (start 27.94 20.32) (end 36.83 20.32) (width 0.35) (layer F.Cu) (net 1) (tstamp 56C0AAD9))
  (segment (start 26.67 21.59) (end 27.94 20.32) (width 0.35) (layer F.Cu) (net 1) (tstamp 56C0AAD8))
  (segment (start 29.21 25.4) (end 29.21 22.86) (width 0.35) (layer F.Cu) (net 2) (tstamp 56C0A974))
  (segment (start 27.94 26.67) (end 29.21 25.4) (width 0.35) (layer F.Cu) (net 2) (tstamp 56C0A970))
  (segment (start 27.94 29.21) (end 27.94 26.67) (width 0.35) (layer F.Cu) (net 2))
  (segment (start 31.75 22.86) (end 31.75 24.13) (width 0.35) (layer F.Cu) (net 3))
  (segment (start 31.75 24.13) (end 33.02 25.4) (width 0.35) (layer F.Cu) (net 3) (tstamp 56C0AA3F))
  (segment (start 33.02 25.4) (end 36.83 25.4) (width 0.35) (layer F.Cu) (net 3) (tstamp 56C0AA41))
  (segment (start 38.1 27.94) (end 39.37 29.21) (width 0.35) (layer F.Cu) (net 3) (tstamp 56C0AA47))
  (segment (start 38.1 26.67) (end 38.1 27.94) (width 0.35) (layer F.Cu) (net 3) (tstamp 56C0AA45))
  (segment (start 36.83 25.4) (end 38.1 26.67) (width 0.35) (layer F.Cu) (net 3) (tstamp 56C0AA43))
  (segment (start 34.29 22.86) (end 36.83 22.86) (width 0.35) (layer F.Cu) (net 4))
  (segment (start 36.83 22.86) (end 38.1 24.13) (width 0.35) (layer F.Cu) (net 4) (tstamp 56C0AA8F))
  (segment (start 38.1 24.13) (end 39.37 24.13) (width 0.35) (layer F.Cu) (net 4) (tstamp 56C0AA91))
  (segment (start 45.72 27.94) (end 45.72 29.21) (width 0.35) (layer F.Cu) (net 4) (tstamp 56C0AA9D))
  (segment (start 44.45 26.67) (end 45.72 27.94) (width 0.35) (layer F.Cu) (net 4) (tstamp 56C0AA99))
  (segment (start 41.91 26.67) (end 44.45 26.67) (width 0.35) (layer F.Cu) (net 4) (tstamp 56C0AA97))
  (segment (start 39.37 24.13) (end 41.91 26.67) (width 0.35) (layer F.Cu) (net 4) (tstamp 56C0AA93))
  (segment (start 27.94 34.29) (end 29.21 34.29) (width 0.35) (layer F.Cu) (net 5))
  (segment (start 29.21 34.29) (end 30.48 33.02) (width 0.35) (layer F.Cu) (net 5) (tstamp 56C0A956))
  (segment (start 30.48 33.02) (end 30.48 31.75) (width 0.35) (layer F.Cu) (net 5) (tstamp 56C0A958))
  (segment (start 31.75 30.48) (end 33.02 30.48) (width 0.35) (layer F.Cu) (net 5) (tstamp 56C0A95C))
  (segment (start 30.48 31.75) (end 31.75 30.48) (width 0.35) (layer F.Cu) (net 5) (tstamp 56C0A959))
  (segment (start 36.83 34.29) (end 39.37 34.29) (width 0.35) (layer F.Cu) (net 6) (tstamp 56C0A9BF))
  (segment (start 35.56 33.02) (end 36.83 34.29) (width 0.35) (layer F.Cu) (net 6) (tstamp 56C0A9BC))
  (segment (start 33.02 33.02) (end 35.56 33.02) (width 0.35) (layer F.Cu) (net 6))
  (segment (start 44.45 34.29) (end 45.72 34.29) (width 0.35) (layer F.Cu) (net 7) (tstamp 56C0A9EA))
  (segment (start 43.18 35.56) (end 44.45 34.29) (width 0.35) (layer F.Cu) (net 7) (tstamp 56C0A9E9))
  (segment (start 43.18 36.83) (end 43.18 35.56) (width 0.35) (layer F.Cu) (net 7) (tstamp 56C0A9E8))
  (segment (start 41.91 38.1) (end 43.18 36.83) (width 0.35) (layer F.Cu) (net 7) (tstamp 56C0A9E5))
  (segment (start 35.56 38.1) (end 41.91 38.1) (width 0.35) (layer F.Cu) (net 7) (tstamp 56C0A9E3))
  (segment (start 34.29 36.83) (end 35.56 38.1) (width 0.35) (layer F.Cu) (net 7) (tstamp 56C0A9DF))
  (segment (start 33.02 35.56) (end 34.29 36.83) (width 0.35) (layer F.Cu) (net 7))
  (segment (start 45.72 22.86) (end 45.72 25.4) (width 0.35) (layer F.Cu) (net 8))
  (segment (start 46.99 31.75) (end 45.72 31.75) (width 0.35) (layer F.Cu) (net 8) (tstamp 56C0B3B8))
  (segment (start 48.26 30.48) (end 46.99 31.75) (width 0.35) (layer F.Cu) (net 8) (tstamp 56C0B3B5))
  (segment (start 48.26 27.94) (end 48.26 30.48) (width 0.35) (layer F.Cu) (net 8) (tstamp 56C0B3B1))
  (segment (start 46.99 26.67) (end 48.26 27.94) (width 0.35) (layer F.Cu) (net 8) (tstamp 56C0B3AD))
  (segment (start 45.72 25.4) (end 46.99 26.67) (width 0.35) (layer F.Cu) (net 8) (tstamp 56C0B3A9))
  (segment (start 39.37 31.75) (end 45.72 31.75) (width 0.35) (layer F.Cu) (net 8))
  (segment (start 33.02 27.94) (end 35.56 27.94) (width 0.35) (layer F.Cu) (net 8))
  (segment (start 38.1 31.75) (end 39.37 31.75) (width 0.35) (layer F.Cu) (net 8) (tstamp 56C0A9AC))
  (segment (start 36.83 30.48) (end 38.1 31.75) (width 0.35) (layer F.Cu) (net 8) (tstamp 56C0A9AA))
  (segment (start 36.83 29.21) (end 36.83 30.48) (width 0.35) (layer F.Cu) (net 8) (tstamp 56C0A9A6))
  (segment (start 35.56 27.94) (end 36.83 29.21) (width 0.35) (layer F.Cu) (net 8) (tstamp 56C0A9A4))
  (segment (start 27.94 31.75) (end 29.21 31.75) (width 0.35) (layer F.Cu) (net 8))
  (segment (start 31.75 27.94) (end 33.02 27.94) (width 0.35) (layer F.Cu) (net 8) (tstamp 56C0A93D))
  (segment (start 30.48 29.21) (end 31.75 27.94) (width 0.35) (layer F.Cu) (net 8) (tstamp 56C0A93B))
  (segment (start 30.48 30.48) (end 30.48 29.21) (width 0.35) (layer F.Cu) (net 8) (tstamp 56C0A938))
  (segment (start 29.21 31.75) (end 30.48 30.48) (width 0.35) (layer F.Cu) (net 8) (tstamp 56C0A935))

  (zone (net 8) (net_name GND) (layer F.Cu) (tstamp 0) (hatch edge 0.508)
    (connect_pads (clearance 0.508))
    (min_thickness 0.254)
    (fill yes (arc_segments 16) (thermal_gap 0.508) (thermal_bridge_width 0.508))
    (polygon
      (pts
        (xy 49.53 21.59) (xy 49.53 36.83) (xy 46.99 39.37) (xy 25.4 39.37) (xy 22.86 36.83)
        (xy 22.86 21.59) (xy 25.4 19.05) (xy 46.99 19.05)
      )
    )
    (filled_polygon
      (pts
        (xy 27.367243 19.747244) (xy 26.097244 21.017244) (xy 25.977428 21.19656) (xy 25.8064 21.19656) (xy 25.571083 21.240838)
        (xy 25.354959 21.37991) (xy 25.209969 21.59211) (xy 25.15896 21.844) (xy 25.15896 23.876) (xy 25.203238 24.111317)
        (xy 25.34231 24.327441) (xy 25.55451 24.472431) (xy 25.8064 24.52344) (xy 27.5336 24.52344) (xy 27.768917 24.479162)
        (xy 27.985041 24.34009) (xy 28.130031 24.12789) (xy 28.1384 24.086561) (xy 28.15033 24.104415) (xy 28.4 24.271239)
        (xy 28.4 25.064487) (xy 27.367245 26.097243) (xy 27.367244 26.097244) (xy 27.191658 26.360026) (xy 27.13 26.67)
        (xy 27.13 27.662172) (xy 27.016869 27.684675) (xy 26.481246 28.042567) (xy 26.123354 28.57819) (xy 25.997679 29.21)
        (xy 26.123354 29.84181) (xy 26.481246 30.377433) (xy 26.655781 30.494054) (xy 26.428764 30.67237) (xy 26.112074 31.235523)
        (xy 26.080025 31.367056) (xy 26.199164 31.623) (xy 27.813 31.623) (xy 27.813 31.603) (xy 28.067 31.603)
        (xy 28.067 31.623) (xy 28.087 31.623) (xy 28.087 31.877) (xy 28.067 31.877) (xy 28.067 31.897)
        (xy 27.813 31.897) (xy 27.813 31.877) (xy 26.199164 31.877) (xy 26.080025 32.132944) (xy 26.112074 32.264477)
        (xy 26.428764 32.82763) (xy 26.655781 33.005946) (xy 26.481246 33.122567) (xy 26.123354 33.65819) (xy 25.997679 34.29)
        (xy 26.123354 34.92181) (xy 26.481246 35.457433) (xy 27.016869 35.815325) (xy 27.648679 35.941) (xy 28.231321 35.941)
        (xy 28.863131 35.815325) (xy 29.398754 35.457433) (xy 29.756646 34.92181) (xy 29.766191 34.873824) (xy 29.782756 34.862756)
        (xy 31.052756 33.592757) (xy 31.140549 33.461365) (xy 31.228342 33.329974) (xy 31.29 33.02) (xy 31.29 32.085512)
        (xy 31.811707 31.563806) (xy 32.090366 31.75) (xy 31.775585 31.96033) (xy 31.450729 32.446511) (xy 31.336655 33.02)
        (xy 31.450729 33.593489) (xy 31.775585 34.07967) (xy 32.090366 34.29) (xy 31.775585 34.50033) (xy 31.450729 34.986511)
        (xy 31.336655 35.56) (xy 31.450729 36.133489) (xy 31.775585 36.61967) (xy 32.261766 36.944526) (xy 32.835255 37.0586)
        (xy 33.204745 37.0586) (xy 33.345158 37.03067) (xy 33.717243 37.402756) (xy 33.717246 37.402758) (xy 34.987243 38.672756)
        (xy 35.005568 38.685) (xy 25.683736 38.685) (xy 23.545 36.546264) (xy 23.545 21.873736) (xy 25.683736 19.735)
        (xy 27.385568 19.735)
      )
    )
    (filled_polygon
      (pts
        (xy 48.845 21.873736) (xy 48.845 36.546264) (xy 46.706264 38.685) (xy 42.464432 38.685) (xy 42.482756 38.672756)
        (xy 43.752756 37.402757) (xy 43.840549 37.271365) (xy 43.928342 37.139974) (xy 43.99 36.83) (xy 43.99 35.895512)
        (xy 44.361255 35.524257) (xy 44.796869 35.815325) (xy 45.428679 35.941) (xy 46.011321 35.941) (xy 46.643131 35.815325)
        (xy 47.178754 35.457433) (xy 47.536646 34.92181) (xy 47.662321 34.29) (xy 47.536646 33.65819) (xy 47.178754 33.122567)
        (xy 47.004219 33.005946) (xy 47.231236 32.82763) (xy 47.547926 32.264477) (xy 47.579975 32.132944) (xy 47.460836 31.877)
        (xy 45.847 31.877) (xy 45.847 31.897) (xy 45.593 31.897) (xy 45.593 31.877) (xy 43.979164 31.877)
        (xy 43.860025 32.132944) (xy 43.892074 32.264477) (xy 44.208764 32.82763) (xy 44.435781 33.005946) (xy 44.261246 33.122567)
        (xy 43.903354 33.65819) (xy 43.893809 33.706175) (xy 43.877243 33.717244) (xy 42.607244 34.987244) (xy 42.431658 35.250026)
        (xy 42.37 35.56) (xy 42.37 36.494487) (xy 41.574488 37.29) (xy 35.895513 37.29) (xy 34.862758 36.257246)
        (xy 34.862756 36.257243) (xy 34.614113 36.0086) (xy 34.703345 35.56) (xy 34.589271 34.986511) (xy 34.264415 34.50033)
        (xy 33.949634 34.29) (xy 34.264415 34.07967) (xy 34.431239 33.83) (xy 35.224488 33.83) (xy 36.257243 34.862756)
        (xy 36.345624 34.92181) (xy 36.520026 35.038342) (xy 36.83 35.1) (xy 37.672417 35.1) (xy 37.911246 35.457433)
        (xy 38.446869 35.815325) (xy 39.078679 35.941) (xy 39.661321 35.941) (xy 40.293131 35.815325) (xy 40.828754 35.457433)
        (xy 41.186646 34.92181) (xy 41.312321 34.29) (xy 41.186646 33.65819) (xy 40.828754 33.122567) (xy 40.654219 33.005946)
        (xy 40.881236 32.82763) (xy 41.197926 32.264477) (xy 41.229975 32.132944) (xy 41.110836 31.877) (xy 39.497 31.877)
        (xy 39.497 31.897) (xy 39.243 31.897) (xy 39.243 31.877) (xy 37.629164 31.877) (xy 37.510025 32.132944)
        (xy 37.542074 32.264477) (xy 37.858764 32.82763) (xy 38.085781 33.005946) (xy 37.911246 33.122567) (xy 37.672417 33.48)
        (xy 37.165513 33.48) (xy 36.132756 32.447244) (xy 35.946447 32.322756) (xy 35.869974 32.271658) (xy 35.56 32.21)
        (xy 34.431239 32.21) (xy 34.264415 31.96033) (xy 33.949634 31.75) (xy 34.264415 31.53967) (xy 34.589271 31.053489)
        (xy 34.703345 30.48) (xy 34.589271 29.906511) (xy 34.264415 29.42033) (xy 34.24222 29.4055) (xy 34.395698 29.341927)
        (xy 34.574327 29.163299) (xy 34.671 28.92991) (xy 34.671 28.22575) (xy 34.51225 28.067) (xy 33.147 28.067)
        (xy 33.147 28.087) (xy 32.893 28.087) (xy 32.893 28.067) (xy 31.52775 28.067) (xy 31.369 28.22575)
        (xy 31.369 28.92991) (xy 31.465673 29.163299) (xy 31.644302 29.341927) (xy 31.79778 29.4055) (xy 31.775585 29.42033)
        (xy 31.587111 29.702401) (xy 31.440026 29.731658) (xy 31.363553 29.782756) (xy 31.177243 29.907244) (xy 29.907244 31.177244)
        (xy 29.794748 31.345605) (xy 29.767926 31.235523) (xy 29.451236 30.67237) (xy 29.224219 30.494054) (xy 29.398754 30.377433)
        (xy 29.756646 29.84181) (xy 29.882321 29.21) (xy 29.756646 28.57819) (xy 29.398754 28.042567) (xy 28.863131 27.684675)
        (xy 28.75 27.662172) (xy 28.75 27.005512) (xy 28.805422 26.95009) (xy 31.369 26.95009) (xy 31.369 27.65425)
        (xy 31.52775 27.813) (xy 32.893 27.813) (xy 32.893 26.60015) (xy 33.147 26.60015) (xy 33.147 27.813)
        (xy 34.51225 27.813) (xy 34.671 27.65425) (xy 34.671 26.95009) (xy 34.574327 26.716701) (xy 34.395698 26.538073)
        (xy 34.162309 26.4414) (xy 33.30575 26.4414) (xy 33.147 26.60015) (xy 32.893 26.60015) (xy 32.73425 26.4414)
        (xy 31.877691 26.4414) (xy 31.644302 26.538073) (xy 31.465673 26.716701) (xy 31.369 26.95009) (xy 28.805422 26.95009)
        (xy 29.782756 25.972757) (xy 29.870549 25.841365) (xy 29.958342 25.709974) (xy 30.02 25.4) (xy 30.02 24.271239)
        (xy 30.26967 24.104415) (xy 30.48 23.789634) (xy 30.69033 24.104415) (xy 30.972401 24.292889) (xy 31.001658 24.439974)
        (xy 31.143101 24.651658) (xy 31.177244 24.702756) (xy 32.447243 25.972756) (xy 32.578635 26.060549) (xy 32.710026 26.148342)
        (xy 33.02 26.21) (xy 36.494488 26.21) (xy 37.29 27.005513) (xy 37.29 27.94) (xy 37.351658 28.249974)
        (xy 37.527244 28.512756) (xy 37.569105 28.554617) (xy 37.553354 28.57819) (xy 37.427679 29.21) (xy 37.553354 29.84181)
        (xy 37.911246 30.377433) (xy 38.085781 30.494054) (xy 37.858764 30.67237) (xy 37.542074 31.235523) (xy 37.510025 31.367056)
        (xy 37.629164 31.623) (xy 39.243 31.623) (xy 39.243 31.603) (xy 39.497 31.603) (xy 39.497 31.623)
        (xy 41.110836 31.623) (xy 41.229975 31.367056) (xy 41.197926 31.235523) (xy 40.881236 30.67237) (xy 40.654219 30.494054)
        (xy 40.828754 30.377433) (xy 41.186646 29.84181) (xy 41.312321 29.21) (xy 41.186646 28.57819) (xy 40.828754 28.042567)
        (xy 40.293131 27.684675) (xy 39.661321 27.559) (xy 39.078679 27.559) (xy 38.91 27.592552) (xy 38.91 26.67)
        (xy 38.848342 26.360026) (xy 38.760549 26.228635) (xy 38.672756 26.097243) (xy 37.402756 24.827244) (xy 37.216447 24.702756)
        (xy 37.139974 24.651658) (xy 36.83 24.59) (xy 33.355513 24.59) (xy 32.833806 24.068293) (xy 33.02 23.789634)
        (xy 33.23033 24.104415) (xy 33.716511 24.429271) (xy 34.29 24.543345) (xy 34.863489 24.429271) (xy 35.34967 24.104415)
        (xy 35.639937 23.67) (xy 36.494488 23.67) (xy 37.527243 24.702756) (xy 37.658635 24.790549) (xy 37.790026 24.878342)
        (xy 38.1 24.94) (xy 39.034488 24.94) (xy 41.337243 27.242756) (xy 41.468635 27.330549) (xy 41.600026 27.418342)
        (xy 41.91 27.48) (xy 44.114488 27.48) (xy 44.510505 27.876017) (xy 44.261246 28.042567) (xy 43.903354 28.57819)
        (xy 43.777679 29.21) (xy 43.903354 29.84181) (xy 44.261246 30.377433) (xy 44.435781 30.494054) (xy 44.208764 30.67237)
        (xy 43.892074 31.235523) (xy 43.860025 31.367056) (xy 43.979164 31.623) (xy 45.593 31.623) (xy 45.593 31.603)
        (xy 45.847 31.603) (xy 45.847 31.623) (xy 47.460836 31.623) (xy 47.579975 31.367056) (xy 47.547926 31.235523)
        (xy 47.231236 30.67237) (xy 47.004219 30.494054) (xy 47.178754 30.377433) (xy 47.536646 29.84181) (xy 47.662321 29.21)
        (xy 47.536646 28.57819) (xy 47.178754 28.042567) (xy 46.643131 27.684675) (xy 46.47246 27.650726) (xy 46.468342 27.630026)
        (xy 46.380549 27.498635) (xy 46.292756 27.367243) (xy 45.022756 26.097244) (xy 45.022755 26.097243) (xy 44.759974 25.921658)
        (xy 44.45 25.86) (xy 42.245513 25.86) (xy 40.055512 23.67) (xy 41.51656 23.67) (xy 41.51656 23.876)
        (xy 41.560838 24.111317) (xy 41.69991 24.327441) (xy 41.91211 24.472431) (xy 42.164 24.52344) (xy 44.196 24.52344)
        (xy 44.431317 24.479162) (xy 44.647441 24.34009) (xy 44.75884 24.177052) (xy 44.855182 24.266385) (xy 45.337056 24.465975)
        (xy 45.593 24.346836) (xy 45.593 22.987) (xy 45.847 22.987) (xy 45.847 24.346836) (xy 46.102944 24.465975)
        (xy 46.584818 24.266385) (xy 47.057188 23.828379) (xy 47.325983 23.242946) (xy 47.207367 22.987) (xy 45.847 22.987)
        (xy 45.593 22.987) (xy 45.573 22.987) (xy 45.573 22.733) (xy 45.593 22.733) (xy 45.593 21.373164)
        (xy 45.847 21.373164) (xy 45.847 22.733) (xy 47.207367 22.733) (xy 47.325983 22.477054) (xy 47.057188 21.891621)
        (xy 46.584818 21.453615) (xy 46.102944 21.254025) (xy 45.847 21.373164) (xy 45.593 21.373164) (xy 45.337056 21.254025)
        (xy 44.855182 21.453615) (xy 44.757602 21.544097) (xy 44.66009 21.392559) (xy 44.44789 21.247569) (xy 44.196 21.19656)
        (xy 42.164 21.19656) (xy 41.928683 21.240838) (xy 41.712559 21.37991) (xy 41.567569 21.59211) (xy 41.51656 21.844)
        (xy 41.51656 22.05) (xy 39.705513 22.05) (xy 37.402756 19.747244) (xy 37.384432 19.735) (xy 46.706264 19.735)
      )
    )
  )
)
