* /home/kpanic/devel/chem/ardunio_rgb/ardunio_RGB.cir

* EESchema Netlist Version 1.1 (Spice format) creation date: Вс 14 фев 2016 14:46:58

* To exclude a component from the Spice Netlist add [Spice_Netlist_Enabled] user FIELD set to: N
* To reorder the component spice node sequence add [Spice_Node_Sequence] user FIELD and define sequence: 2,1,0

* Sheet Name: /
Q1  Net-_P2-Pad4_ Net-_P2-Pad1_ Net-_P1-Pad4_ IRLZ34N		
Q2  Net-_P2-Pad3_ Net-_P2-Pad1_ Net-_P1-Pad3_ IRLZ34N		
Q3  Net-_P2-Pad2_ Net-_P2-Pad1_ Net-_P1-Pad2_ IRLZ34N		
P2  Net-_P2-Pad1_ Net-_P2-Pad2_ Net-_P2-Pad3_ Net-_P2-Pad4_ CONN_01X04		
P1  +12V Net-_P1-Pad2_ Net-_P1-Pad3_ Net-_P1-Pad4_ CONN_01X04		
P3  +12V Net-_P2-Pad1_ CONN_01X02		

.end
