G04 #@! TF.FileFunction,Copper,L1,Top,Signal*
%FSLAX46Y46*%
G04 Gerber Fmt 4.6, Leading zero omitted, Abs format (unit mm)*
G04 Created by KiCad (PCBNEW 4.0.1-stable) date Пн 15 фев 2016 02:29:38*
%MOMM*%
G01*
G04 APERTURE LIST*
%ADD10C,0.100000*%
%ADD11R,1.727200X2.032000*%
%ADD12O,1.727200X2.032000*%
%ADD13R,2.032000X1.727200*%
%ADD14O,2.032000X1.727200*%
%ADD15R,2.032000X2.032000*%
%ADD16O,2.032000X2.032000*%
%ADD17O,2.540000X2.032000*%
%ADD18C,0.350000*%
%ADD19C,0.254000*%
G04 APERTURE END LIST*
D10*
D11*
X26670000Y-22860000D03*
D12*
X29210000Y-22860000D03*
X31750000Y-22860000D03*
X34290000Y-22860000D03*
D13*
X33020000Y-27940000D03*
D14*
X33020000Y-30480000D03*
X33020000Y-33020000D03*
X33020000Y-35560000D03*
D15*
X43180000Y-22860000D03*
D16*
X45720000Y-22860000D03*
D17*
X45720000Y-31750000D03*
X45720000Y-29210000D03*
X45720000Y-34290000D03*
X39370000Y-31750000D03*
X39370000Y-29210000D03*
X39370000Y-34290000D03*
X27940000Y-31750000D03*
X27940000Y-29210000D03*
X27940000Y-34290000D03*
D18*
X26670000Y-22860000D02*
X26670000Y-21590000D01*
X39370000Y-22860000D02*
X43180000Y-22860000D01*
X36830000Y-20320000D02*
X39370000Y-22860000D01*
X27940000Y-20320000D02*
X36830000Y-20320000D01*
X26670000Y-21590000D02*
X27940000Y-20320000D01*
X29210000Y-25400000D02*
X29210000Y-22860000D01*
X27940000Y-26670000D02*
X29210000Y-25400000D01*
X27940000Y-29210000D02*
X27940000Y-26670000D01*
X31750000Y-22860000D02*
X31750000Y-24130000D01*
X31750000Y-24130000D02*
X33020000Y-25400000D01*
X33020000Y-25400000D02*
X36830000Y-25400000D01*
X38100000Y-27940000D02*
X39370000Y-29210000D01*
X38100000Y-26670000D02*
X38100000Y-27940000D01*
X36830000Y-25400000D02*
X38100000Y-26670000D01*
X34290000Y-22860000D02*
X36830000Y-22860000D01*
X36830000Y-22860000D02*
X38100000Y-24130000D01*
X38100000Y-24130000D02*
X39370000Y-24130000D01*
X45720000Y-27940000D02*
X45720000Y-29210000D01*
X44450000Y-26670000D02*
X45720000Y-27940000D01*
X41910000Y-26670000D02*
X44450000Y-26670000D01*
X39370000Y-24130000D02*
X41910000Y-26670000D01*
X27940000Y-34290000D02*
X29210000Y-34290000D01*
X29210000Y-34290000D02*
X30480000Y-33020000D01*
X30480000Y-33020000D02*
X30480000Y-31750000D01*
X31750000Y-30480000D02*
X33020000Y-30480000D01*
X30480000Y-31750000D02*
X31750000Y-30480000D01*
X36830000Y-34290000D02*
X39370000Y-34290000D01*
X35560000Y-33020000D02*
X36830000Y-34290000D01*
X33020000Y-33020000D02*
X35560000Y-33020000D01*
X44450000Y-34290000D02*
X45720000Y-34290000D01*
X43180000Y-35560000D02*
X44450000Y-34290000D01*
X43180000Y-36830000D02*
X43180000Y-35560000D01*
X41910000Y-38100000D02*
X43180000Y-36830000D01*
X35560000Y-38100000D02*
X41910000Y-38100000D01*
X34290000Y-36830000D02*
X35560000Y-38100000D01*
X33020000Y-35560000D02*
X34290000Y-36830000D01*
X45720000Y-22860000D02*
X45720000Y-25400000D01*
X46990000Y-31750000D02*
X45720000Y-31750000D01*
X48260000Y-30480000D02*
X46990000Y-31750000D01*
X48260000Y-27940000D02*
X48260000Y-30480000D01*
X46990000Y-26670000D02*
X48260000Y-27940000D01*
X45720000Y-25400000D02*
X46990000Y-26670000D01*
X39370000Y-31750000D02*
X45720000Y-31750000D01*
X33020000Y-27940000D02*
X35560000Y-27940000D01*
X38100000Y-31750000D02*
X39370000Y-31750000D01*
X36830000Y-30480000D02*
X38100000Y-31750000D01*
X36830000Y-29210000D02*
X36830000Y-30480000D01*
X35560000Y-27940000D02*
X36830000Y-29210000D01*
X27940000Y-31750000D02*
X29210000Y-31750000D01*
X31750000Y-27940000D02*
X33020000Y-27940000D01*
X30480000Y-29210000D02*
X31750000Y-27940000D01*
X30480000Y-30480000D02*
X30480000Y-29210000D01*
X29210000Y-31750000D02*
X30480000Y-30480000D01*
D19*
G36*
X27367243Y-19747244D02*
X26097244Y-21017244D01*
X25977428Y-21196560D01*
X25806400Y-21196560D01*
X25571083Y-21240838D01*
X25354959Y-21379910D01*
X25209969Y-21592110D01*
X25158960Y-21844000D01*
X25158960Y-23876000D01*
X25203238Y-24111317D01*
X25342310Y-24327441D01*
X25554510Y-24472431D01*
X25806400Y-24523440D01*
X27533600Y-24523440D01*
X27768917Y-24479162D01*
X27985041Y-24340090D01*
X28130031Y-24127890D01*
X28138400Y-24086561D01*
X28150330Y-24104415D01*
X28400000Y-24271239D01*
X28400000Y-25064487D01*
X27367245Y-26097243D01*
X27367244Y-26097244D01*
X27191658Y-26360026D01*
X27130000Y-26670000D01*
X27130000Y-27662172D01*
X27016869Y-27684675D01*
X26481246Y-28042567D01*
X26123354Y-28578190D01*
X25997679Y-29210000D01*
X26123354Y-29841810D01*
X26481246Y-30377433D01*
X26655781Y-30494054D01*
X26428764Y-30672370D01*
X26112074Y-31235523D01*
X26080025Y-31367056D01*
X26199164Y-31623000D01*
X27813000Y-31623000D01*
X27813000Y-31603000D01*
X28067000Y-31603000D01*
X28067000Y-31623000D01*
X28087000Y-31623000D01*
X28087000Y-31877000D01*
X28067000Y-31877000D01*
X28067000Y-31897000D01*
X27813000Y-31897000D01*
X27813000Y-31877000D01*
X26199164Y-31877000D01*
X26080025Y-32132944D01*
X26112074Y-32264477D01*
X26428764Y-32827630D01*
X26655781Y-33005946D01*
X26481246Y-33122567D01*
X26123354Y-33658190D01*
X25997679Y-34290000D01*
X26123354Y-34921810D01*
X26481246Y-35457433D01*
X27016869Y-35815325D01*
X27648679Y-35941000D01*
X28231321Y-35941000D01*
X28863131Y-35815325D01*
X29398754Y-35457433D01*
X29756646Y-34921810D01*
X29766191Y-34873824D01*
X29782756Y-34862756D01*
X31052756Y-33592757D01*
X31140549Y-33461365D01*
X31228342Y-33329974D01*
X31290000Y-33020000D01*
X31290000Y-32085512D01*
X31811707Y-31563806D01*
X32090366Y-31750000D01*
X31775585Y-31960330D01*
X31450729Y-32446511D01*
X31336655Y-33020000D01*
X31450729Y-33593489D01*
X31775585Y-34079670D01*
X32090366Y-34290000D01*
X31775585Y-34500330D01*
X31450729Y-34986511D01*
X31336655Y-35560000D01*
X31450729Y-36133489D01*
X31775585Y-36619670D01*
X32261766Y-36944526D01*
X32835255Y-37058600D01*
X33204745Y-37058600D01*
X33345158Y-37030670D01*
X33717243Y-37402756D01*
X33717246Y-37402758D01*
X34987243Y-38672756D01*
X35005568Y-38685000D01*
X25683736Y-38685000D01*
X23545000Y-36546264D01*
X23545000Y-21873736D01*
X25683736Y-19735000D01*
X27385568Y-19735000D01*
X27367243Y-19747244D01*
X27367243Y-19747244D01*
G37*
X27367243Y-19747244D02*
X26097244Y-21017244D01*
X25977428Y-21196560D01*
X25806400Y-21196560D01*
X25571083Y-21240838D01*
X25354959Y-21379910D01*
X25209969Y-21592110D01*
X25158960Y-21844000D01*
X25158960Y-23876000D01*
X25203238Y-24111317D01*
X25342310Y-24327441D01*
X25554510Y-24472431D01*
X25806400Y-24523440D01*
X27533600Y-24523440D01*
X27768917Y-24479162D01*
X27985041Y-24340090D01*
X28130031Y-24127890D01*
X28138400Y-24086561D01*
X28150330Y-24104415D01*
X28400000Y-24271239D01*
X28400000Y-25064487D01*
X27367245Y-26097243D01*
X27367244Y-26097244D01*
X27191658Y-26360026D01*
X27130000Y-26670000D01*
X27130000Y-27662172D01*
X27016869Y-27684675D01*
X26481246Y-28042567D01*
X26123354Y-28578190D01*
X25997679Y-29210000D01*
X26123354Y-29841810D01*
X26481246Y-30377433D01*
X26655781Y-30494054D01*
X26428764Y-30672370D01*
X26112074Y-31235523D01*
X26080025Y-31367056D01*
X26199164Y-31623000D01*
X27813000Y-31623000D01*
X27813000Y-31603000D01*
X28067000Y-31603000D01*
X28067000Y-31623000D01*
X28087000Y-31623000D01*
X28087000Y-31877000D01*
X28067000Y-31877000D01*
X28067000Y-31897000D01*
X27813000Y-31897000D01*
X27813000Y-31877000D01*
X26199164Y-31877000D01*
X26080025Y-32132944D01*
X26112074Y-32264477D01*
X26428764Y-32827630D01*
X26655781Y-33005946D01*
X26481246Y-33122567D01*
X26123354Y-33658190D01*
X25997679Y-34290000D01*
X26123354Y-34921810D01*
X26481246Y-35457433D01*
X27016869Y-35815325D01*
X27648679Y-35941000D01*
X28231321Y-35941000D01*
X28863131Y-35815325D01*
X29398754Y-35457433D01*
X29756646Y-34921810D01*
X29766191Y-34873824D01*
X29782756Y-34862756D01*
X31052756Y-33592757D01*
X31140549Y-33461365D01*
X31228342Y-33329974D01*
X31290000Y-33020000D01*
X31290000Y-32085512D01*
X31811707Y-31563806D01*
X32090366Y-31750000D01*
X31775585Y-31960330D01*
X31450729Y-32446511D01*
X31336655Y-33020000D01*
X31450729Y-33593489D01*
X31775585Y-34079670D01*
X32090366Y-34290000D01*
X31775585Y-34500330D01*
X31450729Y-34986511D01*
X31336655Y-35560000D01*
X31450729Y-36133489D01*
X31775585Y-36619670D01*
X32261766Y-36944526D01*
X32835255Y-37058600D01*
X33204745Y-37058600D01*
X33345158Y-37030670D01*
X33717243Y-37402756D01*
X33717246Y-37402758D01*
X34987243Y-38672756D01*
X35005568Y-38685000D01*
X25683736Y-38685000D01*
X23545000Y-36546264D01*
X23545000Y-21873736D01*
X25683736Y-19735000D01*
X27385568Y-19735000D01*
X27367243Y-19747244D01*
G36*
X48845000Y-21873736D02*
X48845000Y-36546264D01*
X46706264Y-38685000D01*
X42464432Y-38685000D01*
X42482756Y-38672756D01*
X43752756Y-37402757D01*
X43840549Y-37271365D01*
X43928342Y-37139974D01*
X43990000Y-36830000D01*
X43990000Y-35895512D01*
X44361255Y-35524257D01*
X44796869Y-35815325D01*
X45428679Y-35941000D01*
X46011321Y-35941000D01*
X46643131Y-35815325D01*
X47178754Y-35457433D01*
X47536646Y-34921810D01*
X47662321Y-34290000D01*
X47536646Y-33658190D01*
X47178754Y-33122567D01*
X47004219Y-33005946D01*
X47231236Y-32827630D01*
X47547926Y-32264477D01*
X47579975Y-32132944D01*
X47460836Y-31877000D01*
X45847000Y-31877000D01*
X45847000Y-31897000D01*
X45593000Y-31897000D01*
X45593000Y-31877000D01*
X43979164Y-31877000D01*
X43860025Y-32132944D01*
X43892074Y-32264477D01*
X44208764Y-32827630D01*
X44435781Y-33005946D01*
X44261246Y-33122567D01*
X43903354Y-33658190D01*
X43893809Y-33706175D01*
X43877243Y-33717244D01*
X42607244Y-34987244D01*
X42431658Y-35250026D01*
X42370000Y-35560000D01*
X42370000Y-36494487D01*
X41574488Y-37290000D01*
X35895513Y-37290000D01*
X34862758Y-36257246D01*
X34862756Y-36257243D01*
X34614113Y-36008600D01*
X34703345Y-35560000D01*
X34589271Y-34986511D01*
X34264415Y-34500330D01*
X33949634Y-34290000D01*
X34264415Y-34079670D01*
X34431239Y-33830000D01*
X35224488Y-33830000D01*
X36257243Y-34862756D01*
X36345624Y-34921810D01*
X36520026Y-35038342D01*
X36830000Y-35100000D01*
X37672417Y-35100000D01*
X37911246Y-35457433D01*
X38446869Y-35815325D01*
X39078679Y-35941000D01*
X39661321Y-35941000D01*
X40293131Y-35815325D01*
X40828754Y-35457433D01*
X41186646Y-34921810D01*
X41312321Y-34290000D01*
X41186646Y-33658190D01*
X40828754Y-33122567D01*
X40654219Y-33005946D01*
X40881236Y-32827630D01*
X41197926Y-32264477D01*
X41229975Y-32132944D01*
X41110836Y-31877000D01*
X39497000Y-31877000D01*
X39497000Y-31897000D01*
X39243000Y-31897000D01*
X39243000Y-31877000D01*
X37629164Y-31877000D01*
X37510025Y-32132944D01*
X37542074Y-32264477D01*
X37858764Y-32827630D01*
X38085781Y-33005946D01*
X37911246Y-33122567D01*
X37672417Y-33480000D01*
X37165513Y-33480000D01*
X36132756Y-32447244D01*
X35946447Y-32322756D01*
X35869974Y-32271658D01*
X35560000Y-32210000D01*
X34431239Y-32210000D01*
X34264415Y-31960330D01*
X33949634Y-31750000D01*
X34264415Y-31539670D01*
X34589271Y-31053489D01*
X34703345Y-30480000D01*
X34589271Y-29906511D01*
X34264415Y-29420330D01*
X34242220Y-29405500D01*
X34395698Y-29341927D01*
X34574327Y-29163299D01*
X34671000Y-28929910D01*
X34671000Y-28225750D01*
X34512250Y-28067000D01*
X33147000Y-28067000D01*
X33147000Y-28087000D01*
X32893000Y-28087000D01*
X32893000Y-28067000D01*
X31527750Y-28067000D01*
X31369000Y-28225750D01*
X31369000Y-28929910D01*
X31465673Y-29163299D01*
X31644302Y-29341927D01*
X31797780Y-29405500D01*
X31775585Y-29420330D01*
X31587111Y-29702401D01*
X31440026Y-29731658D01*
X31363553Y-29782756D01*
X31177243Y-29907244D01*
X29907244Y-31177244D01*
X29794748Y-31345605D01*
X29767926Y-31235523D01*
X29451236Y-30672370D01*
X29224219Y-30494054D01*
X29398754Y-30377433D01*
X29756646Y-29841810D01*
X29882321Y-29210000D01*
X29756646Y-28578190D01*
X29398754Y-28042567D01*
X28863131Y-27684675D01*
X28750000Y-27662172D01*
X28750000Y-27005512D01*
X28805422Y-26950090D01*
X31369000Y-26950090D01*
X31369000Y-27654250D01*
X31527750Y-27813000D01*
X32893000Y-27813000D01*
X32893000Y-26600150D01*
X33147000Y-26600150D01*
X33147000Y-27813000D01*
X34512250Y-27813000D01*
X34671000Y-27654250D01*
X34671000Y-26950090D01*
X34574327Y-26716701D01*
X34395698Y-26538073D01*
X34162309Y-26441400D01*
X33305750Y-26441400D01*
X33147000Y-26600150D01*
X32893000Y-26600150D01*
X32734250Y-26441400D01*
X31877691Y-26441400D01*
X31644302Y-26538073D01*
X31465673Y-26716701D01*
X31369000Y-26950090D01*
X28805422Y-26950090D01*
X29782756Y-25972757D01*
X29870549Y-25841365D01*
X29958342Y-25709974D01*
X30020000Y-25400000D01*
X30020000Y-24271239D01*
X30269670Y-24104415D01*
X30480000Y-23789634D01*
X30690330Y-24104415D01*
X30972401Y-24292889D01*
X31001658Y-24439974D01*
X31143101Y-24651658D01*
X31177244Y-24702756D01*
X32447243Y-25972756D01*
X32578635Y-26060549D01*
X32710026Y-26148342D01*
X33020000Y-26210000D01*
X36494488Y-26210000D01*
X37290000Y-27005513D01*
X37290000Y-27940000D01*
X37351658Y-28249974D01*
X37527244Y-28512756D01*
X37569105Y-28554617D01*
X37553354Y-28578190D01*
X37427679Y-29210000D01*
X37553354Y-29841810D01*
X37911246Y-30377433D01*
X38085781Y-30494054D01*
X37858764Y-30672370D01*
X37542074Y-31235523D01*
X37510025Y-31367056D01*
X37629164Y-31623000D01*
X39243000Y-31623000D01*
X39243000Y-31603000D01*
X39497000Y-31603000D01*
X39497000Y-31623000D01*
X41110836Y-31623000D01*
X41229975Y-31367056D01*
X41197926Y-31235523D01*
X40881236Y-30672370D01*
X40654219Y-30494054D01*
X40828754Y-30377433D01*
X41186646Y-29841810D01*
X41312321Y-29210000D01*
X41186646Y-28578190D01*
X40828754Y-28042567D01*
X40293131Y-27684675D01*
X39661321Y-27559000D01*
X39078679Y-27559000D01*
X38910000Y-27592552D01*
X38910000Y-26670000D01*
X38848342Y-26360026D01*
X38760549Y-26228635D01*
X38672756Y-26097243D01*
X37402756Y-24827244D01*
X37216447Y-24702756D01*
X37139974Y-24651658D01*
X36830000Y-24590000D01*
X33355513Y-24590000D01*
X32833806Y-24068293D01*
X33020000Y-23789634D01*
X33230330Y-24104415D01*
X33716511Y-24429271D01*
X34290000Y-24543345D01*
X34863489Y-24429271D01*
X35349670Y-24104415D01*
X35639937Y-23670000D01*
X36494488Y-23670000D01*
X37527243Y-24702756D01*
X37658635Y-24790549D01*
X37790026Y-24878342D01*
X38100000Y-24940000D01*
X39034488Y-24940000D01*
X41337243Y-27242756D01*
X41468635Y-27330549D01*
X41600026Y-27418342D01*
X41910000Y-27480000D01*
X44114488Y-27480000D01*
X44510505Y-27876017D01*
X44261246Y-28042567D01*
X43903354Y-28578190D01*
X43777679Y-29210000D01*
X43903354Y-29841810D01*
X44261246Y-30377433D01*
X44435781Y-30494054D01*
X44208764Y-30672370D01*
X43892074Y-31235523D01*
X43860025Y-31367056D01*
X43979164Y-31623000D01*
X45593000Y-31623000D01*
X45593000Y-31603000D01*
X45847000Y-31603000D01*
X45847000Y-31623000D01*
X47460836Y-31623000D01*
X47579975Y-31367056D01*
X47547926Y-31235523D01*
X47231236Y-30672370D01*
X47004219Y-30494054D01*
X47178754Y-30377433D01*
X47536646Y-29841810D01*
X47662321Y-29210000D01*
X47536646Y-28578190D01*
X47178754Y-28042567D01*
X46643131Y-27684675D01*
X46472460Y-27650726D01*
X46468342Y-27630026D01*
X46380549Y-27498635D01*
X46292756Y-27367243D01*
X45022756Y-26097244D01*
X45022755Y-26097243D01*
X44759974Y-25921658D01*
X44450000Y-25860000D01*
X42245513Y-25860000D01*
X40055512Y-23670000D01*
X41516560Y-23670000D01*
X41516560Y-23876000D01*
X41560838Y-24111317D01*
X41699910Y-24327441D01*
X41912110Y-24472431D01*
X42164000Y-24523440D01*
X44196000Y-24523440D01*
X44431317Y-24479162D01*
X44647441Y-24340090D01*
X44758840Y-24177052D01*
X44855182Y-24266385D01*
X45337056Y-24465975D01*
X45593000Y-24346836D01*
X45593000Y-22987000D01*
X45847000Y-22987000D01*
X45847000Y-24346836D01*
X46102944Y-24465975D01*
X46584818Y-24266385D01*
X47057188Y-23828379D01*
X47325983Y-23242946D01*
X47207367Y-22987000D01*
X45847000Y-22987000D01*
X45593000Y-22987000D01*
X45573000Y-22987000D01*
X45573000Y-22733000D01*
X45593000Y-22733000D01*
X45593000Y-21373164D01*
X45847000Y-21373164D01*
X45847000Y-22733000D01*
X47207367Y-22733000D01*
X47325983Y-22477054D01*
X47057188Y-21891621D01*
X46584818Y-21453615D01*
X46102944Y-21254025D01*
X45847000Y-21373164D01*
X45593000Y-21373164D01*
X45337056Y-21254025D01*
X44855182Y-21453615D01*
X44757602Y-21544097D01*
X44660090Y-21392559D01*
X44447890Y-21247569D01*
X44196000Y-21196560D01*
X42164000Y-21196560D01*
X41928683Y-21240838D01*
X41712559Y-21379910D01*
X41567569Y-21592110D01*
X41516560Y-21844000D01*
X41516560Y-22050000D01*
X39705513Y-22050000D01*
X37402756Y-19747244D01*
X37384432Y-19735000D01*
X46706264Y-19735000D01*
X48845000Y-21873736D01*
X48845000Y-21873736D01*
G37*
X48845000Y-21873736D02*
X48845000Y-36546264D01*
X46706264Y-38685000D01*
X42464432Y-38685000D01*
X42482756Y-38672756D01*
X43752756Y-37402757D01*
X43840549Y-37271365D01*
X43928342Y-37139974D01*
X43990000Y-36830000D01*
X43990000Y-35895512D01*
X44361255Y-35524257D01*
X44796869Y-35815325D01*
X45428679Y-35941000D01*
X46011321Y-35941000D01*
X46643131Y-35815325D01*
X47178754Y-35457433D01*
X47536646Y-34921810D01*
X47662321Y-34290000D01*
X47536646Y-33658190D01*
X47178754Y-33122567D01*
X47004219Y-33005946D01*
X47231236Y-32827630D01*
X47547926Y-32264477D01*
X47579975Y-32132944D01*
X47460836Y-31877000D01*
X45847000Y-31877000D01*
X45847000Y-31897000D01*
X45593000Y-31897000D01*
X45593000Y-31877000D01*
X43979164Y-31877000D01*
X43860025Y-32132944D01*
X43892074Y-32264477D01*
X44208764Y-32827630D01*
X44435781Y-33005946D01*
X44261246Y-33122567D01*
X43903354Y-33658190D01*
X43893809Y-33706175D01*
X43877243Y-33717244D01*
X42607244Y-34987244D01*
X42431658Y-35250026D01*
X42370000Y-35560000D01*
X42370000Y-36494487D01*
X41574488Y-37290000D01*
X35895513Y-37290000D01*
X34862758Y-36257246D01*
X34862756Y-36257243D01*
X34614113Y-36008600D01*
X34703345Y-35560000D01*
X34589271Y-34986511D01*
X34264415Y-34500330D01*
X33949634Y-34290000D01*
X34264415Y-34079670D01*
X34431239Y-33830000D01*
X35224488Y-33830000D01*
X36257243Y-34862756D01*
X36345624Y-34921810D01*
X36520026Y-35038342D01*
X36830000Y-35100000D01*
X37672417Y-35100000D01*
X37911246Y-35457433D01*
X38446869Y-35815325D01*
X39078679Y-35941000D01*
X39661321Y-35941000D01*
X40293131Y-35815325D01*
X40828754Y-35457433D01*
X41186646Y-34921810D01*
X41312321Y-34290000D01*
X41186646Y-33658190D01*
X40828754Y-33122567D01*
X40654219Y-33005946D01*
X40881236Y-32827630D01*
X41197926Y-32264477D01*
X41229975Y-32132944D01*
X41110836Y-31877000D01*
X39497000Y-31877000D01*
X39497000Y-31897000D01*
X39243000Y-31897000D01*
X39243000Y-31877000D01*
X37629164Y-31877000D01*
X37510025Y-32132944D01*
X37542074Y-32264477D01*
X37858764Y-32827630D01*
X38085781Y-33005946D01*
X37911246Y-33122567D01*
X37672417Y-33480000D01*
X37165513Y-33480000D01*
X36132756Y-32447244D01*
X35946447Y-32322756D01*
X35869974Y-32271658D01*
X35560000Y-32210000D01*
X34431239Y-32210000D01*
X34264415Y-31960330D01*
X33949634Y-31750000D01*
X34264415Y-31539670D01*
X34589271Y-31053489D01*
X34703345Y-30480000D01*
X34589271Y-29906511D01*
X34264415Y-29420330D01*
X34242220Y-29405500D01*
X34395698Y-29341927D01*
X34574327Y-29163299D01*
X34671000Y-28929910D01*
X34671000Y-28225750D01*
X34512250Y-28067000D01*
X33147000Y-28067000D01*
X33147000Y-28087000D01*
X32893000Y-28087000D01*
X32893000Y-28067000D01*
X31527750Y-28067000D01*
X31369000Y-28225750D01*
X31369000Y-28929910D01*
X31465673Y-29163299D01*
X31644302Y-29341927D01*
X31797780Y-29405500D01*
X31775585Y-29420330D01*
X31587111Y-29702401D01*
X31440026Y-29731658D01*
X31363553Y-29782756D01*
X31177243Y-29907244D01*
X29907244Y-31177244D01*
X29794748Y-31345605D01*
X29767926Y-31235523D01*
X29451236Y-30672370D01*
X29224219Y-30494054D01*
X29398754Y-30377433D01*
X29756646Y-29841810D01*
X29882321Y-29210000D01*
X29756646Y-28578190D01*
X29398754Y-28042567D01*
X28863131Y-27684675D01*
X28750000Y-27662172D01*
X28750000Y-27005512D01*
X28805422Y-26950090D01*
X31369000Y-26950090D01*
X31369000Y-27654250D01*
X31527750Y-27813000D01*
X32893000Y-27813000D01*
X32893000Y-26600150D01*
X33147000Y-26600150D01*
X33147000Y-27813000D01*
X34512250Y-27813000D01*
X34671000Y-27654250D01*
X34671000Y-26950090D01*
X34574327Y-26716701D01*
X34395698Y-26538073D01*
X34162309Y-26441400D01*
X33305750Y-26441400D01*
X33147000Y-26600150D01*
X32893000Y-26600150D01*
X32734250Y-26441400D01*
X31877691Y-26441400D01*
X31644302Y-26538073D01*
X31465673Y-26716701D01*
X31369000Y-26950090D01*
X28805422Y-26950090D01*
X29782756Y-25972757D01*
X29870549Y-25841365D01*
X29958342Y-25709974D01*
X30020000Y-25400000D01*
X30020000Y-24271239D01*
X30269670Y-24104415D01*
X30480000Y-23789634D01*
X30690330Y-24104415D01*
X30972401Y-24292889D01*
X31001658Y-24439974D01*
X31143101Y-24651658D01*
X31177244Y-24702756D01*
X32447243Y-25972756D01*
X32578635Y-26060549D01*
X32710026Y-26148342D01*
X33020000Y-26210000D01*
X36494488Y-26210000D01*
X37290000Y-27005513D01*
X37290000Y-27940000D01*
X37351658Y-28249974D01*
X37527244Y-28512756D01*
X37569105Y-28554617D01*
X37553354Y-28578190D01*
X37427679Y-29210000D01*
X37553354Y-29841810D01*
X37911246Y-30377433D01*
X38085781Y-30494054D01*
X37858764Y-30672370D01*
X37542074Y-31235523D01*
X37510025Y-31367056D01*
X37629164Y-31623000D01*
X39243000Y-31623000D01*
X39243000Y-31603000D01*
X39497000Y-31603000D01*
X39497000Y-31623000D01*
X41110836Y-31623000D01*
X41229975Y-31367056D01*
X41197926Y-31235523D01*
X40881236Y-30672370D01*
X40654219Y-30494054D01*
X40828754Y-30377433D01*
X41186646Y-29841810D01*
X41312321Y-29210000D01*
X41186646Y-28578190D01*
X40828754Y-28042567D01*
X40293131Y-27684675D01*
X39661321Y-27559000D01*
X39078679Y-27559000D01*
X38910000Y-27592552D01*
X38910000Y-26670000D01*
X38848342Y-26360026D01*
X38760549Y-26228635D01*
X38672756Y-26097243D01*
X37402756Y-24827244D01*
X37216447Y-24702756D01*
X37139974Y-24651658D01*
X36830000Y-24590000D01*
X33355513Y-24590000D01*
X32833806Y-24068293D01*
X33020000Y-23789634D01*
X33230330Y-24104415D01*
X33716511Y-24429271D01*
X34290000Y-24543345D01*
X34863489Y-24429271D01*
X35349670Y-24104415D01*
X35639937Y-23670000D01*
X36494488Y-23670000D01*
X37527243Y-24702756D01*
X37658635Y-24790549D01*
X37790026Y-24878342D01*
X38100000Y-24940000D01*
X39034488Y-24940000D01*
X41337243Y-27242756D01*
X41468635Y-27330549D01*
X41600026Y-27418342D01*
X41910000Y-27480000D01*
X44114488Y-27480000D01*
X44510505Y-27876017D01*
X44261246Y-28042567D01*
X43903354Y-28578190D01*
X43777679Y-29210000D01*
X43903354Y-29841810D01*
X44261246Y-30377433D01*
X44435781Y-30494054D01*
X44208764Y-30672370D01*
X43892074Y-31235523D01*
X43860025Y-31367056D01*
X43979164Y-31623000D01*
X45593000Y-31623000D01*
X45593000Y-31603000D01*
X45847000Y-31603000D01*
X45847000Y-31623000D01*
X47460836Y-31623000D01*
X47579975Y-31367056D01*
X47547926Y-31235523D01*
X47231236Y-30672370D01*
X47004219Y-30494054D01*
X47178754Y-30377433D01*
X47536646Y-29841810D01*
X47662321Y-29210000D01*
X47536646Y-28578190D01*
X47178754Y-28042567D01*
X46643131Y-27684675D01*
X46472460Y-27650726D01*
X46468342Y-27630026D01*
X46380549Y-27498635D01*
X46292756Y-27367243D01*
X45022756Y-26097244D01*
X45022755Y-26097243D01*
X44759974Y-25921658D01*
X44450000Y-25860000D01*
X42245513Y-25860000D01*
X40055512Y-23670000D01*
X41516560Y-23670000D01*
X41516560Y-23876000D01*
X41560838Y-24111317D01*
X41699910Y-24327441D01*
X41912110Y-24472431D01*
X42164000Y-24523440D01*
X44196000Y-24523440D01*
X44431317Y-24479162D01*
X44647441Y-24340090D01*
X44758840Y-24177052D01*
X44855182Y-24266385D01*
X45337056Y-24465975D01*
X45593000Y-24346836D01*
X45593000Y-22987000D01*
X45847000Y-22987000D01*
X45847000Y-24346836D01*
X46102944Y-24465975D01*
X46584818Y-24266385D01*
X47057188Y-23828379D01*
X47325983Y-23242946D01*
X47207367Y-22987000D01*
X45847000Y-22987000D01*
X45593000Y-22987000D01*
X45573000Y-22987000D01*
X45573000Y-22733000D01*
X45593000Y-22733000D01*
X45593000Y-21373164D01*
X45847000Y-21373164D01*
X45847000Y-22733000D01*
X47207367Y-22733000D01*
X47325983Y-22477054D01*
X47057188Y-21891621D01*
X46584818Y-21453615D01*
X46102944Y-21254025D01*
X45847000Y-21373164D01*
X45593000Y-21373164D01*
X45337056Y-21254025D01*
X44855182Y-21453615D01*
X44757602Y-21544097D01*
X44660090Y-21392559D01*
X44447890Y-21247569D01*
X44196000Y-21196560D01*
X42164000Y-21196560D01*
X41928683Y-21240838D01*
X41712559Y-21379910D01*
X41567569Y-21592110D01*
X41516560Y-21844000D01*
X41516560Y-22050000D01*
X39705513Y-22050000D01*
X37402756Y-19747244D01*
X37384432Y-19735000D01*
X46706264Y-19735000D01*
X48845000Y-21873736D01*
M02*
